"1","0","1","cron_subscription","2019-05-21"
"2","0","1","cron_subscription1","2019-05-21"
"3","0","0","cron_subscription3","2019-05-21"
"4","0","1","cron_subscription4","2019-05-21"
"5","0","1","cron_subscription2","2019-05-21"
